<Value> - <Frequency> - <Result>
122     - 3           - 00000
153     - 1           - 000010
131     - 1           - 000011
127     - 5           - 0001
114     - 1           - 001000
87      - 1           - 001001
175     - 1           - 001010
163     - 1           - 001011
110     - 1           - 001100
174     - 1           - 001101
130     - 1           - 001110
125     - 1           - 001111
103     - 1           - 010000
124     - 1           - 010001
167     - 1           - 010010
102     - 1           - 010011
148     - 1           - 010100
79      - 1           - 010101
187     - 1           - 010110
143     - 1           - 010111
96      - 1           - 011000
89      - 1           - 011001
98      - 1           - 011010
139     - 1           - 011011
138     - 1           - 011100
83      - 1           - 011101
100     - 1           - 011110
149     - 1           - 011111
104     - 1           - 100000
72      - 1           - 100001
75      - 1           - 100010
128     - 1           - 100011
155     - 2           - 10010
106     - 2           - 10011
136     - 2           - 10100
118     - 2           - 10101
142     - 2           - 10110
146     - 2           - 10111
84      - 2           - 11000
169     - 2           - 11001
115     - 4           - 1101
140     - 3           - 1110
93      - 3           - 1111
